[
    {
	"name" :"scorsese",
	"moviesList":
	[
	    {"title":"casino"},
	    {"title":"les affranchis"}
	]
    },
    {
	"name":"kubrick",
	"moviesList":
	[
	    {"title":"orange mecanique"},
	    {"title":"dr folamour"}
	]
    },
    {
	"name" : "lumet",
	"moviesList":
	[
	    {"title" : "serpico"},
	    {"title" : "12 hommes en colere"}
	]
    }
]
  


